lab2/codes/CPU.vcd
$date
	Mon Jan  2 01:14:14 2023
$end
$version
	Icarus Verilog
$end
$timescale
	1s
$end
$scope module TestBench $end
$var reg 1 ! Clk $end
$var reg 1 " Reset $end
$var integer 32 # counter [31:0] $end
$var integer 32 $ i [31:0] $end
$var integer 32 % outfile [31:0] $end
$scope module CPU $end
$var wire 1 ! clk_i $end
$var wire 1 " rst_i $end
$var wire 1 & predict_o $end
$var wire 32 ' pc_o [31:0] $end
$var wire 32 ( pc_i [31:0] $end
$var wire 32 ) instr_o [31:0] $end
$var wire 10 * funct_i [9:0] $end
$var wire 1 + flush $end
$var wire 1 , branch_result_o $end
$var wire 32 - branch_PC [31:0] $end
$var wire 1 . Zero_o $end
$var wire 1 / Stall_o $end
$var wire 1 0 RegWrite_o $end
$var wire 32 1 RS2data_o [31:0] $end
$var wire 5 2 RS2addr_i [4:0] $end
$var wire 32 3 RS1data_o [31:0] $end
$var wire 5 4 RS1addr_i [4:0] $end
$var wire 32 5 RDdata_i [31:0] $end
$var wire 5 6 RDaddr_i [4:0] $end
$var wire 1 7 PCWrite $end
$var wire 7 8 Opcode [6:0] $end
$var wire 1 9 NoOp_o $end
$var wire 1 : MemtoReg_o $end
$var wire 32 ; Memdata_o [31:0] $end
$var wire 1 < MemWrite_o $end
$var wire 1 = MemRead_o $end
$var wire 1 > MEM_WB_RegWrite_o $end
$var wire 5 ? MEM_WB_RDaddr_o [4:0] $end
$var wire 1 @ MEM_WB_MemtoReg_o $end
$var wire 32 A MEM_WB_Memdata_o [31:0] $end
$var wire 32 B MEM_WB_ALU_result_o [31:0] $end
$var wire 32 C Imm_o [31:0] $end
$var wire 12 D Imm_i [11:0] $end
$var wire 32 E IF_ID_pc_o [31:0] $end
$var wire 32 F IF_ID_instr_o [31:0] $end
$var wire 32 G IFID_branch_PC [31:0] $end
$var wire 1 H IFID_Flush $end
$var wire 32 I ID_EX_pc_o [31:0] $end
$var wire 10 J ID_EX_funct_o [9:0] $end
$var wire 1 K ID_EX_RegWrite_o $end
$var wire 32 L ID_EX_RS2data_o [31:0] $end
$var wire 5 M ID_EX_RS2addr_o [4:0] $end
$var wire 32 N ID_EX_RS1data_o [31:0] $end
$var wire 5 O ID_EX_RS1addr_o [4:0] $end
$var wire 5 P ID_EX_RDaddr_o [4:0] $end
$var wire 1 Q ID_EX_MemtoReg_o $end
$var wire 1 R ID_EX_MemWrite_o $end
$var wire 1 S ID_EX_MemRead_o $end
$var wire 32 T ID_EX_Imm_o [31:0] $end
$var wire 1 U ID_EX_Branch_o $end
$var wire 1 V ID_EX_ALUSrc_o $end
$var wire 2 W ID_EX_ALUOp_o [1:0] $end
$var wire 32 X IDEX_branch_PC [31:0] $end
$var wire 1 Y IDEX_Flush $end
$var wire 32 Z ForwardBdata_o [31:0] $end
$var wire 2 [ ForwardB_o [1:0] $end
$var wire 32 \ ForwardAdata_o [31:0] $end
$var wire 2 ] ForwardA_o [1:0] $end
$var wire 1 ^ EX_MEM_RegWrite_o $end
$var wire 32 _ EX_MEM_RS2data_o [31:0] $end
$var wire 5 ` EX_MEM_RDaddr_o [4:0] $end
$var wire 1 a EX_MEM_MemtoReg_o $end
$var wire 1 b EX_MEM_MemWrite_o $end
$var wire 1 c EX_MEM_MemRead_o $end
$var wire 32 d EX_MEM_ALU_result_o [31:0] $end
$var wire 1 e Branch_o $end
$var wire 32 f Add_PC_o [31:0] $end
$var wire 32 g ALUdata_o [31:0] $end
$var wire 32 h ALUdata_i [31:0] $end
$var wire 1 i ALUSrc_o $end
$var wire 2 j ALUOp_o [1:0] $end
$var wire 3 k ALUCtrl_o [2:0] $end
$scope module ALU $end
$var wire 32 l data_o [31:0] $end
$var wire 32 m data2_i [31:0] $end
$var wire 32 n data1_i [31:0] $end
$var wire 1 . Zero_o $end
$var wire 3 o ALUCtrl_i [2:0] $end
$upscope $end
$scope module ALU_Control $end
$var wire 10 p funct_i [9:0] $end
$var wire 2 q ALUOp_i [1:0] $end
$var wire 3 r ALUCtrl_o [2:0] $end
$upscope $end
$scope module Add_PC $end
$var wire 32 s data2_in [31:0] $end
$var wire 32 t data_o [31:0] $end
$var wire 32 u data1_in [31:0] $end
$upscope $end
$scope module Control $end
$var wire 7 v Op_i [6:0] $end
$var wire 1 0 RegWrite_o $end
$var wire 1 9 NoOp_i $end
$var wire 1 : MemtoReg_o $end
$var wire 1 < MemWrite_o $end
$var wire 1 = MemRead_o $end
$var wire 1 e Branch_o $end
$var wire 1 i ALUSrc_o $end
$var wire 2 w ALUOp_o [1:0] $end
$upscope $end
$scope module Data_Memory $end
$var wire 1 ! clk_i $end
$var wire 32 x data_o [31:0] $end
$var wire 32 y data_i [31:0] $end
$var wire 32 z addr_i [31:0] $end
$var wire 1 b MemWrite_i $end
$var wire 1 c MemRead_i $end
$upscope $end
$scope module EX_MEM $end
$var wire 32 { ALU_result_i [31:0] $end
$var wire 1 ! clk_i $end
$var wire 1 " rst_i $end
$var wire 1 K RegWrite_i $end
$var wire 32 | RS2data_i [31:0] $end
$var wire 5 } RDaddr_i [4:0] $end
$var wire 1 Q MemtoReg_i $end
$var wire 1 R MemWrite_i $end
$var wire 1 S MemRead_i $end
$var reg 32 ~ ALU_result_o [31:0] $end
$var reg 1 c MemRead_o $end
$var reg 1 b MemWrite_o $end
$var reg 1 a MemtoReg_o $end
$var reg 5 !" RDaddr_o [4:0] $end
$var reg 32 "" RS2data_o [31:0] $end
$var reg 1 ^ RegWrite_o $end
$upscope $end
$scope module Flush $end
$var wire 32 #" IFID_branch_PC_i [31:0] $end
$var wire 1 H IFID_Flush_i $end
$var wire 32 $" IDEX_branch_PC_i [31:0] $end
$var wire 1 Y IDEX_Flush_i $end
$var reg 1 + IFID_Flush_o $end
$var reg 32 %" branch_PC_o [31:0] $end
$upscope $end
$scope module ForwardA $end
$var wire 32 &" data3_i [31:0] $end
$var wire 2 '" select_i [1:0] $end
$var wire 32 (" data_o [31:0] $end
$var wire 32 )" data2_i [31:0] $end
$var wire 32 *" data1_i [31:0] $end
$upscope $end
$scope module ForwardB $end
$var wire 32 +" data3_i [31:0] $end
$var wire 2 ," select_i [1:0] $end
$var wire 32 -" data_o [31:0] $end
$var wire 32 ." data2_i [31:0] $end
$var wire 32 /" data1_i [31:0] $end
$upscope $end
$scope module ForwardingUnit $end
$var wire 5 0" MEM_RDaddr_i [4:0] $end
$var wire 1 ^ MEM_RegWrite_i $end
$var wire 1 > WB_RegWrite_i $end
$var wire 5 1" WB_RDaddr_i [4:0] $end
$var wire 5 2" EX_RS2addr_i [4:0] $end
$var wire 5 3" EX_RS1addr_i [4:0] $end
$var reg 2 4" ForwardA_o [1:0] $end
$var reg 2 5" ForwardB_o [1:0] $end
$upscope $end
$scope module Hazard_Detection $end
$var wire 5 6" RS1addr_i [4:0] $end
$var wire 5 7" RS2addr_i [4:0] $end
$var wire 5 8" RDaddr_i [4:0] $end
$var wire 1 S MemRead_i $end
$var reg 1 9 NoOp_o $end
$var reg 1 7 PCWrite_o $end
$var reg 1 / Stall_o $end
$upscope $end
$scope module ID_Branch_Unit $end
$var wire 1 e Branch_i $end
$var wire 1 & predict_i $end
$var wire 32 9" PC_o [31:0] $end
$var wire 32 :" PC_i [31:0] $end
$var wire 32 ;" Imm_i [31:0] $end
$var reg 1 H Flush_o $end
$upscope $end
$scope module ID_EX $end
$var wire 2 <" ALUOp_i [1:0] $end
$var wire 1 i ALUSrc_i $end
$var wire 1 e Branch_i $end
$var wire 1 = MemRead_i $end
$var wire 1 < MemWrite_i $end
$var wire 1 : MemtoReg_i $end
$var wire 5 =" RDaddr_i [4:0] $end
$var wire 5 >" RS1addr_i [4:0] $end
$var wire 5 ?" RS2addr_i [4:0] $end
$var wire 1 0 RegWrite_i $end
$var wire 1 ! clk_i $end
$var wire 10 @" funct_i [9:0] $end
$var wire 1 " rst_i $end
$var wire 1 Y flush_i $end
$var wire 32 A" data2_i [31:0] $end
$var wire 32 B" data1_i [31:0] $end
$var wire 32 C" PC_i [31:0] $end
$var wire 32 D" Imm_i [31:0] $end
$var reg 2 E" ALUOp_o [1:0] $end
$var reg 1 V ALUSrc_o $end
$var reg 1 U Branch_o $end
$var reg 32 F" Imm_o [31:0] $end
$var reg 1 S MemRead_o $end
$var reg 1 R MemWrite_o $end
$var reg 1 Q MemtoReg_o $end
$var reg 32 G" PC_o [31:0] $end
$var reg 5 H" RDaddr_o [4:0] $end
$var reg 5 I" RS1addr_o [4:0] $end
$var reg 5 J" RS2addr_o [4:0] $end
$var reg 1 K RegWrite_o $end
$var reg 32 K" data1_o [31:0] $end
$var reg 32 L" data2_o [31:0] $end
$var reg 10 M" funct_o [9:0] $end
$upscope $end
$scope module IF_ID $end
$var wire 1 ! clk_i $end
$var wire 1 + flush_i $end
$var wire 1 N" rst_i $end
$var wire 1 / stall_i $end
$var wire 1 O" start_i $end
$var wire 32 P" inst_i [31:0] $end
$var wire 32 Q" PC_i [31:0] $end
$var reg 32 R" PC_o [31:0] $end
$var reg 32 S" inst_o [31:0] $end
$upscope $end
$scope module Instruction_Memory $end
$var wire 32 T" instr_o [31:0] $end
$var wire 32 U" addr_i [31:0] $end
$upscope $end
$scope module MEM_WB $end
$var wire 32 V" ALU_result_i [31:0] $end
$var wire 1 a MemtoReg_i $end
$var wire 5 W" RDaddr_i [4:0] $end
$var wire 1 ^ RegWrite_i $end
$var wire 1 ! clk_i $end
$var wire 32 X" data_i [31:0] $end
$var wire 1 " rst_i $end
$var reg 32 Y" ALU_result_o [31:0] $end
$var reg 1 @ MemtoReg_o $end
$var reg 5 Z" RDaddr_o [4:0] $end
$var reg 1 > RegWrite_o $end
$var reg 32 [" data_o [31:0] $end
$upscope $end
$scope module MUX_ALUSrc $end
$var wire 32 \" data1_i [31:0] $end
$var wire 32 ]" data2_i [31:0] $end
$var wire 1 V select_i $end
$var wire 32 ^" data_o [31:0] $end
$upscope $end
$scope module MUX_PC $end
$var wire 32 _" data1_i [31:0] $end
$var wire 32 `" data2_i [31:0] $end
$var wire 1 + select_i $end
$var wire 32 a" data_o [31:0] $end
$upscope $end
$scope module MUX_WriteSrc $end
$var wire 32 b" data1_i [31:0] $end
$var wire 32 c" data2_i [31:0] $end
$var wire 1 @ select_i $end
$var wire 32 d" data_o [31:0] $end
$upscope $end
$scope module PC $end
$var wire 1 7 PCWrite_i $end
$var wire 1 ! clk_i $end
$var wire 32 e" pc_i [31:0] $end
$var wire 1 " rst_i $end
$var reg 32 f" pc_o [31:0] $end
$upscope $end
$scope module Registers $end
$var wire 5 g" RDaddr_i [4:0] $end
$var wire 32 h" RDdata_i [31:0] $end
$var wire 5 i" RS1addr_i [4:0] $end
$var wire 5 j" RS2addr_i [4:0] $end
$var wire 1 > RegWrite_i $end
$var wire 1 ! clk_i $end
$var wire 32 k" RS2data_o [31:0] $end
$var wire 32 l" RS1data_o [31:0] $end
$upscope $end
$scope module Sign_Extend $end
$var wire 12 m" data_i [11:0] $end
$var wire 32 n" data_o [31:0] $end
$upscope $end
$scope module branch_check $end
$var wire 1 U Branch_i $end
$var wire 32 o" Imm_i [31:0] $end
$var wire 32 p" PC_i [31:0] $end
$var wire 1 & predict_i $end
$var wire 1 , branch_result_i $end
$var reg 1 Y Flush_o $end
$var reg 32 q" PC_o [31:0] $end
$upscope $end
$scope module branch_predictor $end
$var wire 1 U Branch_i $end
$var wire 1 ! clk_i $end
$var wire 1 & result_i $end
$var wire 1 " rst_i $end
$var wire 1 , update_i $end
$var reg 2 r" history [1:0] $end
$var reg 1 & predict_o $end
$upscope $end
$scope module branch_result $end
$var wire 1 U Branch_i $end
$var wire 1 . Zero_i $end
$var wire 1 , result_o $end
$upscope $end
$upscope $end
$upscope $end
$enddefinitions $end
#0
$dumpvars
b11 r"
bx q"
b0 p"
bx o"
b0 n"
b0 m"
b0 l"
b0 k"
b0 j"
b0 i"
b0 h"
b0 g"
bx f"
bx e"
b0 d"
b0 c"
b0 b"
bx a"
bx `"
bx _"
bx ^"
bx ]"
bx \"
b0 ["
b0 Z"
b0 Y"
b0 X"
b0 W"
bx V"
bx U"
bx T"
b0 S"
b0 R"
bx Q"
bx P"
zO"
zN"
b0 M"
bx L"
bx K"
b0 J"
b0 I"
b0 H"
b0 G"
bx F"
bx E"
b0 D"
b0 C"
b0 B"
b0 A"
b0 @"
b0 ?"
b0 >"
b0 ="
b0 <"
b0 ;"
b0 :"
b0 9"
b0 8"
b0 7"
b0 6"
b0 5"
b0 4"
b0 3"
b0 2"
b0 1"
b0 0"
bx /"
b0 ."
bx -"
b0 ,"
bx +"
bx *"
b0 )"
bx ("
b0 '"
bx &"
bx %"
bx $"
b0 #"
bx ""
b0 !"
bx ~
b0 }
bx |
bx {
bx z
bx y
b0 x
b0 w
b0 v
bx u
bx t
b100 s
bx r
bx q
b0 p
bx o
bx n
bx m
bx l
bx k
b0 j
0i
bx h
bx g
bx f
0e
bx d
0c
0b
0a
b0 `
bx _
0^
b0 ]
bx \
b0 [
bx Z
0Y
bx X
bx W
xV
zU
bx T
zS
zR
zQ
b0 P
b0 O
bx N
b0 M
bx L
zK
b0 J
b0 I
0H
b0 G
b0 F
b0 E
b0 D
b0 C
b0 B
b0 A
0@
b0 ?
0>
0=
0<
b0 ;
0:
09
b0 8
17
b0 6
b0 5
b0 4
b0 3
b0 2
b0 1
00
0/
x.
bx -
x,
0+
b0 *
bx )
bx (
bx '
1&
b11 %
b100000 $
b0 #
0"
1!
$end
#12
b0 g
b0 l
b0 {
b110 k
b110 o
b110 r
1.
b0 h
b0 m
b0 ^"
b0 Z
b0 |
b0 -"
b0 \"
b0 \
b0 n
b0 ("
0,
b110000010011 )
b110000010011 P"
b110000010011 T"
b100 (
b100 a"
b100 e"
b0 _
b0 y
b0 ""
b0 d
b0 z
b0 ~
b0 &"
b0 +"
b0 V"
b0 T
b0 F"
b0 ]"
b0 o"
b0 L
b0 /"
b0 L"
b0 N
b0 *"
b0 K"
0V
b0 W
b0 q
b0 E"
0U
0R
0S
0Q
0K
b100 f
b100 t
b100 _"
b0 '
b0 u
b0 Q"
b0 U"
b0 f"
1"
#24
0"
#25
0!
#50
10
1i
b10000000000110100010011 )
b10000000000110100010011 P"
b10000000000110100010011 T"
b1000 (
b1000 a"
b1000 e"
b11000 6
b11000 ="
b10011 8
b10011 v
b1000 f
b1000 t
b1000 _"
b100 '
b100 u
b100 Q"
b100 U"
b100 f"
b110000010011 F
b110000010011 S"
b1 #
1!
#75
0!
#100
b100 C
b100 ;"
b100 D"
b100 n"
b100 D
b100 m"
b10000000000111000010011 )
b10000000000111000010011 P"
b10000000000111000010011 T"
b1100 (
b1100 a"
b1100 e"
b11010 6
b11010 ="
b100 2
b100 7"
b100 ?"
b100 j"
b11000 P
b11000 }
b11000 8"
b11000 H"
1V
1K
b1100 f
b1100 t
b1100 _"
b1000 '
b1000 u
b1000 Q"
b1000 U"
b1000 f"
b1100 G
b1100 #"
b1100 9"
b100 E
b100 :"
b100 C"
b100 R"
b10000000000110100010011 F
b10000000000110100010011 S"
b10 #
1!
#125
0!
#150
b100 g
b100 l
b100 {
0.
b11111111111100000000011110010011 )
b11111111111100000000011110010011 P"
b11111111111100000000011110010011 T"
b10000 (
b10000 a"
b10000 e"
b100 h
b100 m
b100 ^"
b11100 6
b11100 ="
b10000 f
b10000 t
b10000 _"
b1100 '
b1100 u
b1100 Q"
b1100 U"
b1100 f"
b100 I
b100 G"
b100 p"
b11010 P
b11010 }
b11010 8"
b11010 H"
b100 M
b100 2"
b100 J"
b100 T
b100 F"
b100 ]"
b100 o"
b11000 `
b11000 !"
b11000 0"
b11000 W"
1^
b10000 G
b10000 #"
b10000 9"
b1000 E
b1000 :"
b1000 C"
b1000 R"
b10000000000111000010011 F
b10000000000111000010011 S"
b11 #
1!
#175
0!
#200
b11111111111111111111111111111111 C
b11111111111111111111111111111111 ;"
b11111111111111111111111111111111 D"
b11111111111111111111111111111111 n"
b111111111111 D
b111111111111 m"
b111110 1
b111110 A"
b111110 k"
b11110011010000110010110011 )
b11110011010000110010110011 P"
b11110011010000110010110011 T"
b10100 (
b10100 a"
b10100 e"
b1111111000 *
b1111111000 @"
b1111 6
b1111 ="
b11111 2
b11111 7"
b11111 ?"
b11111 j"
b11000 ?
b11000 1"
b11000 Z"
b11000 g"
1>
b11010 `
b11010 !"
b11010 0"
b11010 W"
b100 d
b100 z
b100 ~
b100 &"
b100 +"
b100 V"
b1000 I
b1000 G"
b1000 p"
b11100 P
b11100 }
b11100 8"
b11100 H"
b10100 f
b10100 t
b10100 _"
b10000 '
b10000 u
b10000 Q"
b10000 U"
b10000 f"
b1010 G
b1010 #"
b1010 9"
b1100 E
b1100 :"
b1100 C"
b1100 R"
b11111111111100000000011110010011 F
b11111111111100000000011110010011 S"
b100 #
1!
#225
0!
#250
b11111111111111111111111111111111 g
b11111111111111111111111111111111 l
b11111111111111111111111111111111 {
b111100 C
b111100 ;"
b111100 D"
b111100 n"
b111100 D
b111100 m"
b111000 1
b111000 A"
b111000 k"
b100 3
b100 B"
b100 l"
b10 j
b10 w
b10 <"
0i
b11111111111111010000110100010011 )
b11111111111111010000110100010011 P"
b11111111111111010000110100010011 T"
b11000 (
b11000 a"
b11000 e"
b11111111111111111111111111111111 h
b11111111111111111111111111111111 m
b11111111111111111111111111111111 ^"
b111110 Z
b111110 |
b111110 -"
b111110 \"
b100 5
b100 )"
b100 ."
b100 d"
b100 h"
b1000 *
b1000 @"
b11001 6
b11001 ="
b11100 2
b11100 7"
b11100 ?"
b11100 j"
b11010 4
b11010 6"
b11010 >"
b11010 i"
b110011 8
b110011 v
b11000 f
b11000 t
b11000 _"
b10100 '
b10100 u
b10100 Q"
b10100 U"
b10100 f"
b1100 I
b1100 G"
b1100 p"
b1111 P
b1111 }
b1111 8"
b1111 H"
b11111 M
b11111 2"
b11111 J"
b1111111000 J
b1111111000 p
b1111111000 M"
b11111111111111111111111111111111 T
b11111111111111111111111111111111 F"
b11111111111111111111111111111111 ]"
b11111111111111111111111111111111 o"
b111110 L
b111110 /"
b111110 L"
b11100 `
b11100 !"
b11100 0"
b11100 W"
b11010 ?
b11010 1"
b11010 Z"
b11010 g"
b100 B
b100 Y"
b100 b"
b10001000 G
b10001000 #"
b10001000 9"
b10000 E
b10000 :"
b10000 C"
b10000 R"
b11110011010000110010110011 F
b11110011010000110010110011 S"
b101 #
1!
#275
0!
#300
b10000 g
b10000 l
b10000 {
b101 k
b101 o
b101 r
1.
b11111111111111111111111111111111 C
b11111111111111111111111111111111 ;"
b11111111111111111111111111111111 D"
b11111111111111111111111111111111 n"
b111111111111 D
b111111111111 m"
b111110 1
b111110 A"
b111110 k"
b0 j
b0 w
b0 <"
1i
b1 [
b1 ,"
b1 5"
b100 Z
b100 |
b100 -"
b100 \"
b100 \
b100 n
b100 ("
b100 h
b100 m
b100 ^"
b11001010110110000011 )
b11001010110110000011 P"
b11001010110110000011 T"
b11100 (
b11100 a"
b11100 e"
b1111111000 *
b1111111000 @"
b11010 6
b11010 ="
b11111 2
b11111 7"
b11111 ?"
b11111 j"
b10011 8
b10011 v
b11100 ?
b11100 1"
b11100 Z"
b11100 g"
b1111 `
b1111 !"
b1111 0"
b1111 W"
b111110 _
b111110 y
b111110 ""
b11111111111111111111111111111111 d
b11111111111111111111111111111111 z
b11111111111111111111111111111111 ~
b11111111111111111111111111111111 &"
b11111111111111111111111111111111 +"
b11111111111111111111111111111111 V"
b10000 I
b10000 G"
b10000 p"
b11001 P
b11001 }
b11001 8"
b11001 H"
b11100 M
b11100 2"
b11100 J"
b11010 O
b11010 3"
b11010 I"
b1000 J
b1000 p
b1000 M"
b111100 T
b111100 F"
b111100 ]"
b111100 o"
b111000 L
b111000 /"
b111000 L"
b100 N
b100 *"
b100 K"
0V
b10 W
b10 q
b10 E"
b11100 f
b11100 t
b11100 _"
b11000 '
b11000 u
b11000 Q"
b11000 U"
b11000 f"
b10010 G
b10010 #"
b10010 9"
b10100 E
b10100 :"
b10100 C"
b10100 R"
b11111111111111010000110100010011 F
b11111111111111010000110100010011 S"
b110 #
1!
#325
0!
#350
b11 g
b11 l
b11 {
b110 k
b110 o
b110 r
0.
b0 C
b0 ;"
b0 D"
b0 n"
b0 D
b0 m"
1:
1=
b111110 Z
b111110 |
b111110 -"
b111110 \"
b0 1
b0 A"
b0 k"
b11111111111111111111111111100111 3
b11111111111111111111111111100111 B"
b11111111111111111111111111100111 l"
b1101111000000110000110011 )
b1101111000000110000110011 P"
b1101111000000110000110011 T"
b100000 (
b100000 a"
b100000 e"
b11111111111111111111111111111111 h
b11111111111111111111111111111111 m
b11111111111111111111111111111111 ^"
b0 [
b0 ,"
b0 5"
b11111111111111111111111111111111 5
b11111111111111111111111111111111 )"
b11111111111111111111111111111111 ."
b11111111111111111111111111111111 d"
b11111111111111111111111111111111 h"
b10 *
b10 @"
b11011 6
b11011 ="
b0 2
b0 7"
b0 ?"
b0 j"
b11001 4
b11001 6"
b11001 >"
b11001 i"
b11 8
b11 v
b100000 f
b100000 t
b100000 _"
b11100 '
b11100 u
b11100 Q"
b11100 U"
b11100 f"
b10100 I
b10100 G"
b10100 p"
b11010 P
b11010 }
b11010 8"
b11010 H"
b11111 M
b11111 2"
b11111 J"
b1111111000 J
b1111111000 p
b1111111000 M"
b11111111111111111111111111111111 T
b11111111111111111111111111111111 F"
b11111111111111111111111111111111 ]"
b11111111111111111111111111111111 o"
b111110 L
b111110 /"
b111110 L"
1V
b0 W
b0 q
b0 E"
b11001 `
b11001 !"
b11001 0"
b11001 W"
b100 _
b100 y
b100 ""
b10000 d
b10000 z
b10000 ~
b10000 &"
b10000 +"
b10000 V"
b1111 ?
b1111 1"
b1111 Z"
b1111 g"
b11111111111111111111111111111111 B
b11111111111111111111111111111111 Y"
b11111111111111111111111111111111 b"
b11000 G
b11000 #"
b11000 9"
b11000 E
b11000 :"
b11000 C"
b11000 R"
b11001010110110000011 F
b11001010110110000011 S"
b111 #
1!
#375
0!
#400
b11 k
b11 o
b11 r
b10000 g
b10000 l
b10000 {
0.
b11011 C
b11011 ;"
b11011 D"
b11011 n"
b11011 D
b11011 m"
0=
0:
00
b11111111111111111111111111100101 1
b11111111111111111111111111100101 A"
b11111111111111111111111111100101 k"
b0 3
b0 B"
b0 l"
b10 j
b10 w
b10 <"
0i
b10000 5
b10000 )"
b10000 ."
b10000 d"
b10000 h"
b1 ]
b1 '"
b1 4"
b0 h
b0 m
b0 ^"
b0 Z
b0 |
b0 -"
b0 \"
b10000 \
b10000 n
b10000 ("
19
1/
07
b111111010000010001100011 )
b111111010000010001100011 P"
b111111010000010001100011 T"
b100100 (
b100100 a"
b100100 e"
b0 *
b0 @"
b11000 6
b11000 ="
b11011 2
b11011 7"
b11011 ?"
b11011 j"
b11000 4
b11000 6"
b11000 >"
b11000 i"
b110011 8
b110011 v
b11001 ?
b11001 1"
b11001 Z"
b11001 g"
b10000 B
b10000 Y"
b10000 b"
b11010 `
b11010 !"
b11010 0"
b11010 W"
b111110 _
b111110 y
b111110 ""
b11 d
b11 z
b11 ~
b11 &"
b11 +"
b11 V"
b11000 I
b11000 G"
b11000 p"
b11011 P
b11011 }
b11011 8"
b11011 H"
b0 M
b0 2"
b0 J"
b11001 O
b11001 3"
b11001 I"
b10 J
b10 p
b10 M"
b0 T
b0 F"
b0 ]"
b0 o"
b0 L
b0 /"
b0 L"
b11111111111111111111111111100111 N
b11111111111111111111111111100111 *"
b11111111111111111111111111100111 K"
1S
1Q
b100100 f
b100100 t
b100100 _"
b100000 '
b100000 u
b100000 Q"
b100000 U"
b100000 f"
b1010010 G
b1010010 #"
b1010010 9"
b11100 E
b11100 :"
b11100 C"
b11100 R"
b1101111000000110000110011 F
b1101111000000110000110011 S"
b1000 #
1!
#425
0!
#450
b10000 g
b10000 l
b10000 {
0.
b10000 h
b10000 m
b10000 ^"
10
b0 \
b0 n
b0 ("
b10000 Z
b10000 |
b10000 -"
b10000 \"
09
0/
17
b11101 ;
b11101 x
b11101 X"
b10 [
b10 ,"
b10 5"
b0 ]
b0 '"
b0 4"
b11 5
b11 )"
b11 ."
b11 d"
b11 h"
b11100 I
b11100 G"
b11100 p"
b11000 P
b11000 }
b11000 8"
b11000 H"
b11011 M
b11011 2"
b11011 J"
b11000 O
b11000 3"
b11000 I"
b0 J
b0 p
b0 M"
b11011 T
b11011 F"
b11011 ]"
b11011 o"
b11111111111111111111111111100101 L
b11111111111111111111111111100101 /"
b11111111111111111111111111100101 L"
b0 N
b0 *"
b0 K"
0V
b10 W
b10 q
b10 E"
0S
0Q
0K
b11011 `
b11011 !"
b11011 0"
b11011 W"
b0 _
b0 y
b0 ""
b10000 d
b10000 z
b10000 ~
b10000 &"
b10000 +"
b10000 V"
1c
1a
b11010 ?
b11010 1"
b11010 Z"
b11010 g"
b11 B
b11 Y"
b11 b"
b1001 #
1!
#475
0!
#500
b11101 g
b11101 l
b11101 {
1+
b101000 -
b101000 %"
b101000 `"
b11101 h
b11101 m
b11101 ^"
1H
b11101 Z
b11101 |
b11101 -"
b11101 \"
b100 C
b100 ;"
b100 D"
b100 n"
b100 D
b100 m"
00
1e
b11111111111111111111111111111111 1
b11111111111111111111111111111111 A"
b11111111111111111111111111111111 k"
b11 3
b11 B"
b11 l"
b11 j
b11 w
b11 <"
b11101 5
b11101 )"
b11101 ."
b11101 d"
b11101 h"
b0 ;
b0 x
b0 X"
b1 [
b1 ,"
b1 5"
b11111110000000000000011011100011 )
b11111110000000000000011011100011 P"
b11111110000000000000011011100011 T"
b101000 (
b101000 a"
b101000 e"
b1000 6
b1000 ="
b1111 2
b1111 7"
b1111 ?"
b1111 j"
b11010 4
b11010 6"
b11010 >"
b11010 i"
b1100011 8
b1100011 v
b11011 ?
b11011 1"
b11011 Z"
b11011 g"
b11101 A
b11101 ["
b11101 c"
b10000 B
b10000 Y"
b10000 b"
1@
b11000 `
b11000 !"
b11000 0"
b11000 W"
b10000 _
b10000 y
b10000 ""
0c
0a
0^
1K
b101000 f
b101000 t
b101000 _"
b100100 '
b100100 u
b100100 Q"
b100100 U"
b100100 f"
b101000 G
b101000 #"
b101000 9"
b100000 E
b100000 :"
b100000 C"
b100000 R"
b111111010000010001100011 F
b111111010000010001100011 S"
b1010 #
1!
#525
0!
#550
b0 j
b0 w
b0 <"
b100 g
b100 l
b100 {
b100 k
b100 o
b100 r
0H
b11111111111111111111111111111111 h
b11111111111111111111111111111111 m
b11111111111111111111111111111111 ^"
b0 C
b0 ;"
b0 D"
b0 n"
b0 D
b0 m"
0e
b11111111111111111111111111111111 Z
b11111111111111111111111111111111 |
b11111111111111111111111111111111 -"
b11111111111111111111111111111111 \"
b100100 (
b100100 a"
b100100 e"
b0 1
b0 A"
b0 k"
b0 3
b0 B"
b0 l"
b1100000000010111000100011 )
b1100000000010111000100011 P"
b1100000000010111000100011 T"
b11 \
b11 n
b11 ("
b100100 X
b100100 $"
b100100 q"
1Y
b10000 5
b10000 )"
b10000 ."
b10000 d"
b10000 h"
b0 [
b0 ,"
b0 5"
b100100 -
b100100 %"
b100100 `"
1+
b0 6
b0 ="
b0 2
b0 7"
b0 ?"
b0 j"
b0 4
b0 6"
b0 >"
b0 i"
b0 8
b0 v
b101100 f
b101100 t
b101100 _"
b101000 '
b101000 u
b101000 Q"
b101000 U"
b101000 f"
b100000 I
b100000 G"
b100000 p"
b1000 P
b1000 }
b1000 8"
b1000 H"
b1111 M
b1111 2"
b1111 J"
b11010 O
b11010 3"
b11010 I"
b100 T
b100 F"
b100 ]"
b100 o"
b11111111111111111111111111111111 L
b11111111111111111111111111111111 /"
b11111111111111111111111111111111 L"
b11 N
b11 *"
b11 K"
b11 W
b11 q
b11 E"
1U
0K
b11101 _
b11101 y
b11101 ""
b11101 d
b11101 z
b11101 ~
b11101 &"
b11101 +"
b11101 V"
1^
b11000 ?
b11000 1"
b11000 Z"
b11000 g"
b0 A
b0 ["
b0 c"
0@
0>
b0 G
b0 #"
b0 9"
b0 E
b0 :"
b0 C"
b0 R"
b0 F
b0 S"
b1011 #
1!
#575
0!
#600
b110 k
b110 o
b110 r
b0 g
b0 l
b0 {
1.
b101000 (
b101000 a"
b101000 e"
b0 h
b0 m
b0 ^"
0+
b11101 5
b11101 )"
b11101 ."
b11101 d"
b11101 h"
b0 Z
b0 |
b0 -"
b0 \"
b0 \
b0 n
b0 ("
0Y
b11111110000000000000011011100011 )
b11111110000000000000011011100011 P"
b11111110000000000000011011100011 T"
b11101 B
b11101 Y"
b11101 b"
1>
b1000 `
b1000 !"
b1000 0"
b1000 W"
b11111111111111111111111111111111 _
b11111111111111111111111111111111 y
b11111111111111111111111111111111 ""
b100 d
b100 z
b100 ~
b100 &"
b100 +"
b100 V"
0^
b0 I
b0 G"
b0 p"
b0 P
b0 }
b0 8"
b0 H"
b0 M
b0 2"
b0 J"
b0 O
b0 3"
b0 I"
b0 T
b0 F"
b0 ]"
b0 o"
b0 L
b0 /"
b0 L"
b0 N
b0 *"
b0 K"
b0 W
b0 q
b0 E"
0U
b101000 f
b101000 t
b101000 _"
b100100 '
b100100 u
b100100 Q"
b100100 U"
b100100 f"
b1100 #
b10 r"
1!
#625
0!
